Duration_code,AGRESSION_CODE,ROI,RTA Code,Allocation
0,M,0.0775,205G,100.00
0,A,0.0850,132G,100.00
1,M,0.0900,132G,50.00
1,M,0.0900,OCGP,50.00
1,A,0.1050,32,75.00
1,A,0.1050,MTG,25.00
2,M,0.1050,NIGP,12.50
2,M,0.1050,85NIG,65.00
2,M,0.1050,26PP,22.50
2,A,0.1200,NIGP,20.00
2,A,0.1200,85NIG,50.00
2,A,0.1200,26PP,30.00
3,M,0.1200,NIGP,20.00
3,M,0.1200,85NIG,22.50
3,M,0.1200,26PP,32.50
3,M,0.1200,154,25.00
3,A,0.1350,NIGP,35.00
3,A,0.1350,85NIG,15.00
3,A,0.1350,26PP,32.50
3,A,0.1350,154,17.50
4,M,0.1350,NIGP,30.00
4,M,0.1350,85NIG,12.50
4,M,0.1350,26PP,32.50
4,M,0.1350,154,25.00
4,A,0.1500,NIGP,50.00
4,A,0.1500,85NIG,10.00
4,A,0.1500,26PP,25.00
4,A,0.1500,154,15.00